…
###
### Sample size calculations
################################################################################

###  Full cohort
# A tibble: 2,158 x 5
   scenario_count trim_method_name thres mean_n_kept p_kept
            <int> <chr>            <dbl>       <dbl>  <dbl>
 1              1 none               0          6000      1
 2              1 walker             0.2        6000      1
 3              2 none               0          6000      1
 4              2 walker             0.2        6000      1
 5              3 none               0          6000      1
 6              3 walker             0.2        6000      1
 7              4 none               0          6000      1
 8              4 walker             0.2        6000      1
 9              5 none               0          6000      1
10              5 walker             0.2        6000      1
# ... with 2,148 more rows
…
# A tibble: 1,079 x 5
   scenario_count p_mean_n0_kept p_mean_n1_kept p_mean_n2_kept p_mean_n_group_kept_min
            <int>          <dbl>          <dbl>          <dbl>                   <dbl>
 1              1          1              1              1                       1    
 2              2          1              1              1                       1    
 3              3          1              1              1                       1    
 4              4          1              1              1                       1    
 5              5          1              1              1                       1    
 6              6          1              1              1                       1    
 7              7          0.973          0.968          0.958                   0.958
 8              8          0.966          0.959          0.943                   0.943
 9              9          0.947          0.935          0.910                   0.910
10             10          0.915          0.898          0.856                   0.856
# ... with 1,069 more rows
###  Any duplicated scenarios?
[1] FALSE

###
### Bias calculation for mean coef (compare to corresponding true value)
################################################################################

###
### Assign proportion kept at different threshold to the full cohort result
################################################################################
Joining, by = c("scenario_count", "adjustment", "measure", "contrast")
###  df_bias_full_cohort
# A tibble: 22,659 x 33
   scenario_count trim_method_name thres adjustment reest measure contrast mean_n_kept mean_n0_kept
            <int> <chr>            <dbl> <fct>      <lgl> <chr>   <chr>          <dbl>        <dbl>
 1              1 none                 0 IPTW       FALSE coef    1vs0            6000        2001.
 2              1 none                 0 IPTW       FALSE coef    2vs0            6000        2001.
 3              1 none                 0 IPTW       FALSE coef    2vs1            6000        2001.
 4              1 none                 0 IPTW       TRUE  coef    1vs0            6000        2001.
 5              1 none                 0 IPTW       TRUE  coef    2vs0            6000        2001.
 6              1 none                 0 IPTW       TRUE  coef    2vs1            6000        2001.
 7              1 none                 0 MW         FALSE coef    1vs0            6000        2001.
 8              1 none                 0 MW         FALSE coef    2vs0            6000        2001.
 9              1 none                 0 MW         FALSE coef    2vs1            6000        2001.
10              1 none                 0 MW         TRUE  coef    1vs0            6000        2001.
# ... with 22,649 more rows, and 24 more variables: mean_n1_kept <dbl>, mean_n2_kept <dbl>,
#   min_n_kept <dbl>, min_n0_kept <dbl>, min_n1_kept <dbl>, min_n2_kept <dbl>, max_n_kept <dbl>,
#   max_n0_kept <dbl>, max_n1_kept <dbl>, max_n2_kept <dbl>, n <dbl>, p <dbl>, correlation <dbl>,
#   lambda <dbl>, prev <dbl>, size <chr>, unmeasured <dbl>, equipoise <dbl>, incidence <dbl>,
#   main_effect <chr>, x_on_y <dbl>, modification <dbl>, bias <dbl>, p_kept <dbl>
###  df_bias_full_cohort with p_mean_n_group_kept_min
Joining, by = "scenario_count"
# A tibble: 22,659 x 37
   scenario_count trim_method_name thres adjustment reest measure contrast mean_n_kept mean_n0_kept
            <int> <chr>            <dbl> <fct>      <lgl> <chr>   <chr>          <dbl>        <dbl>
 1              1 none                 0 IPTW       FALSE coef    1vs0            6000        2001.
 2              1 none                 0 IPTW       FALSE coef    2vs0            6000        2001.
 3              1 none                 0 IPTW       FALSE coef    2vs1            6000        2001.
 4              1 none                 0 IPTW       TRUE  coef    1vs0            6000        2001.
 5              1 none                 0 IPTW       TRUE  coef    2vs0            6000        2001.
 6              1 none                 0 IPTW       TRUE  coef    2vs1            6000        2001.
 7              1 none                 0 MW         FALSE coef    1vs0            6000        2001.
 8              1 none                 0 MW         FALSE coef    2vs0            6000        2001.
 9              1 none                 0 MW         FALSE coef    2vs1            6000        2001.
10              1 none                 0 MW         TRUE  coef    1vs0            6000        2001.
# ... with 22,649 more rows, and 28 more variables: mean_n1_kept <dbl>, mean_n2_kept <dbl>,
#   min_n_kept <dbl>, min_n0_kept <dbl>, min_n1_kept <dbl>, min_n2_kept <dbl>, max_n_kept <dbl>,
#   max_n0_kept <dbl>, max_n1_kept <dbl>, max_n2_kept <dbl>, n <dbl>, p <dbl>, correlation <dbl>,
#   lambda <dbl>, prev <dbl>, size <chr>, unmeasured <dbl>, equipoise <dbl>, incidence <dbl>,
#   main_effect <chr>, x_on_y <dbl>, modification <dbl>, bias <dbl>, p_kept <dbl>,
#   p_mean_n0_kept <dbl>, p_mean_n1_kept <dbl>, p_mean_n2_kept <dbl>, p_mean_n_group_kept_min <dbl>
…
